> tbl_df(vehicle_equip)
# A tibble: 43 x 26
   equipment.id                           equipment.name equipment.equipmentType equipment.availability  equipment.attributes equipment.compressionRatio equipment.cylinder
*         <chr>                                    <chr>                   <chr>                  <chr>                <list>                      <dbl>              <int>
1     200069327                                   OnStar              TELEMATICS               STANDARD <data.frame [18 x 2]>                         NA                 NA
2     200476998  3.6L V6 24 Valve   Gas Regular Unleaded                  ENGINE               STANDARD                <NULL>                       11.5                  6
3     200476999                                       6A            TRANSMISSION               STANDARD                <NULL>                         NA                 NA
4   20047700419                         Cargo Dimensions                   OTHER               STANDARD  <data.frame [1 x 2]>                         NA                 NA
5   20047700420                      Mobile Connectivity                   OTHER               STANDARD  <data.frame [4 x 2]>                         NA                 NA
6   20047700423                          Instrumentation                   OTHER               STANDARD  <data.frame [7 x 2]>                         NA                 NA
7   20047700424                                    Doors                   OTHER               STANDARD  <data.frame [1 x 2]>                         NA                 NA
8   20047700425                          Exterior Lights                   OTHER               STANDARD  <data.frame [6 x 2]>                         NA                 NA
9   20047700428                     Front Passenger Seat                   OTHER               STANDARD  <data.frame [4 x 2]>                         NA                 NA
10  20047700429                                  Mirrors                 MIRRORS               STANDARD  <data.frame [8 x 2]>                         NA                 NA
# ... with 33 more rows, and 19 more variables: equipment.size <dbl>, equipment.displacement <dbl>, equipment.configuration <chr>, equipment.fuelType <chr>,
#   equipment.horsepower <int>, equipment.torque <int>, equipment.totalValves <int>, equipment.manufacturerEngineCode <chr>, equipment.type <chr>, equipment.code <chr>,
#   equipment.compressorType <lgl>, equipment.automaticType <chr>, equipment.transmissionType <chr>, equipment.numberOfSpeeds <chr>, equipment.rpm.horsepower <int>,
#   equipment.rpm.torque <int>, equipment.valve.timing <chr>, equipment.valve.gear <chr>, equipmentCount <int>
…
